@startuml vector
package "Vector Group"{
    agent Vector
    agent "VectorOf( [ ValueType ] )" as VectorOf
    agent "VectorSequence( [ ValueType ] )" as VectorSequence
    agent "VectorSet( [ ValueType ] )" as VectorSet
    VectorOf -up-> Vector
    VectorSequence -up-> VectorOf
    VectorSet -up-> VectorSequence
}
@enduml